AXCPT Psychometrics
…
#make 2 age groups as between subjects condition
dt$age_group<- NA
dt$age_group[dt$id<=40]<-1 
dt$age_group[dt$id>40]<-2

#simulate some rts and accs
dt$rt_ms<- rnorm(nrow(dt), mean=400, sd=200)
dt$acc<-sample(x=c(0,1),size=nrow(dt),replace=TRUE,prob=c(.2,.8))

#take a look at dt
dt %>% group_by(age_group,id,trialtype) %>%
  count()

## # A tibble: 320 x 4
## # Groups:   age_group, id, trialtype [320]
##    age_group    id trialtype     n
##        <dbl> <int> <fct>     <int>
##  1         1     1 ax           20
##  2         1     1 ay           20
##  3         1     1 bx           20
##  4         1     1 by           20
##  5         1     2 ax           20
##  6         1     2 ay           20
##  7         1     2 bx           20
##  8         1     2 by           20
##  9         1     3 ax           20
## 10         1     3 ay           20
## #  with 310 more rows
…
